com\lms\entity\Leave.class
com\lms\service\EmployeeService.class
com\lms\service\EmployeeServiceImpl.class
com\lms\entity\EmployeeLeave.class
com\lms\dao\EmpDao.class
com\lms\controller\SpringBootApp.class
com\lms\service\LmsService.class
com\lms\dao\EmpDaoImpl.class
com\lms\controller\EmpController.class
com\lms\dao\EmployeeDao.class
com\lms\entity\Employee.class
com\lms\controller\LmsController.class
com\lms\service\LmsServiceImpl.class
com\lms\dao\EmployeeDaoImpl.class
com\lms\hibernateC\HibernateConfiguration.class
